2 Sentiment Analysis Tutorial | Sentiment Analysis Processing and Visualization Tutorial
…
2.1 What is Sentiment Analysis?

Sentiment Analysis defines the process of extracting and evaluating the nature of opinion in documents, websites, social media, etc. These opinions are then classified based on a metric where they can be binary (positive or negative) or they can be classified into a multitude of classes (happy, sad, angry, etc.).

2.1.1 Sentiment Lexicons

Sentiment lexicons refers to dictionaries that exist for evaluating text based on emotion/opinion. The tidytext package contains three sentiment lexicons in the sentiments dataset.

sentiments

## # A tibble: 6,786 × 2
##    word        sentiment
##    <chr>       <chr>    
##  1 2-faces     negative 
##  2 abnormal    negative 
##  3 abolish     negative 
##  4 abominable  negative 
##  5 abominably  negative 
##  6 abominate   negative 
##  7 abomination negative 
##  8 abort       negative 
##  9 aborted     negative 
## 10 aborts      negative 
## # … with 6,776 more rows

The following are the three lexicons that are based on unigrams (single words) that are in English. The AFFIN lexicon uses a scoring system from -5 to 5 to assign a word with negative scores indicating negative sentiment and positive scores indicating positive sentiment. The bing lexicon uses a binary system where words are categorized as either positive or negative. The nrc lexicon has 10 categories that include positive, negative, anger, anticipation, disgust, fear, joy, sadness, surprise, and trust. Use the function get_sentiment() to get a specific sentiment lexicon.

AFFIN from Finn Årup Nielsen

bing from Bing Liu and collaborators

nrc from Saif Mohammad and Peter Turney

# to see the individual lexicons 
get_sentiments("afinn")

## # A tibble: 2,477 × 2
##    word       value
##    <chr>      <dbl>
##  1 abandon       -2
##  2 abandoned     -2
##  3 abandons      -2
##  4 abducted      -2
##  5 abduction     -2
##  6 abductions    -2
##  7 abhor         -3
##  8 abhorred      -3
##  9 abhorrent     -3
## 10 abhors        -3
## # … with 2,467 more rows

get_sentiments("bing")

## # A tibble: 6,786 × 2
##    word        sentiment
##    <chr>       <chr>    
##  1 2-faces     negative 
##  2 abnormal    negative 
##  3 abolish     negative 
##  4 abominable  negative 
##  5 abominably  negative 
##  6 abominate   negative 
##  7 abomination negative 
##  8 abort       negative 
##  9 aborted     negative 
## 10 aborts      negative 
## # … with 6,776 more rows

get_sentiments("nrc")

## # A tibble: 13,872 × 2
##    word        sentiment
##    <chr>       <chr>    
##  1 abacus      trust    
##  2 abandon     fear     
##  3 abandon     negative 
##  4 abandon     sadness  
##  5 abandoned   anger    
##  6 abandoned   fear     
##  7 abandoned   negative 
##  8 abandoned   sadness  
##  9 abandonment anger    
## 10 abandonment fear     
## # … with 13,862 more rows
…
Remove symbols

The tidytext package will allow us to perform efficient text analysis on our data. We will convert the text of our novel into a tidy format using unnest_tokens() function. Tidy data has the following structure:

Each variable is a column

Each observation is a row

Each type of observational unit is a table

# process text data using txtclean()
darwin_data <- txtclean(darwin, "darwin")
darwin_data

## # A tibble: 76,710 × 2
##    word       novel 
##    <chr>      <chr> 
##  1 origin     darwin
##  2 species    darwin
##  3 charles    darwin
##  4 darwin     darwin
##  5 historical darwin
##  6 sketch     darwin
##  7 progress   darwin
##  8 opinion    darwin
##  9 origin     darwin
## 10 species    darwin
## # … with 76,700 more rows
…
As predicted, the number of rows reduced after each lexicon was applied. The afinn lexicon significantly reduced the row dimensions from 78,556 rows of words to 4,758. The bing lexicon resulted in 6,378 rows whereas the nrc lexicon has the greatest amount at 27,156 rows. This may be due to its multi-categorical nature since it is able to encapsulate more words.

2.4 Most Common Words

Since we have a tidy dataframe, we can easily display the most common positive and negative words. This is done by analyzing word counts that contribute to each sentiment. By implementing count() with arguments of both word and sentiment, we find out each word’s sentimental contribution.

afinn_word_counts <- darwin_afinn %>% 
  #summarise(sentiment = sum(value)) %>% 
  mutate(method = "AFINN") %>%
  count(word, sentiment = value, sort = TRUE)

afinn_word_counts

## # A tibble: 544 × 3
##    word       sentiment     n
##    <chr>          <dbl> <int>
##  1 natural            1   491
##  2 doubt             -1   106
##  3 perfect            3   100
##  4 importance         2    90
##  5 increase           1    80
##  6 struggle          -2    80
##  7 true               2    79
##  8 advantage          2    72
##  9 chance             2    64
## 10 improved           2    62
## # … with 534 more rows

Now we will count the darwin_bing data set which assigns a binary classification of positive and negative sentiment.

bing_word_counts <- darwin_bing %>%
  count(word, sentiment, sort = TRUE) %>%
  ungroup()

bing_word_counts ## probably dont need to display

## # A tibble: 995 × 3
##    word       sentiment     n
##    <chr>      <chr>     <int>
##  1 doubt      negative    106
##  2 perfect    positive    100
##  3 difficulty negative     96
##  4 variety    positive     93
##  5 struggle   negative     80
##  6 respect    positive     77
##  7 slowly     negative     74
##  8 advantage  positive     72
##  9 complex    negative     68
## 10 improved   positive     62
## # … with 985 more rows

Similarly, we count darwin_nrc data set which contains multiple categories of sentiment.

nrc_word_counts <- darwin_nrc %>%
  count(word, sentiment, sort = TRUE) %>%
  ungroup()

nrc_word_counts

## # A tibble: 2,990 × 3
##    word      sentiment        n
##    <chr>     <chr>        <int>
##  1 structure positive       243
##  2 structure trust          243
##  3 time      anticipation   236
##  4 degree    positive       206
##  5 found     joy            166
##  6 found     positive       166
##  7 found     trust          166
##  8 organic   positive       160
##  9 theory    anticipation   155
## 10 theory    trust          155
## # … with 2,980 more rows
…
